{
    "type": "minecraft:crafting_shapeless",
    "ingredients": [
        {
            "tag": "zarrowsandstuff:food_chilly1"
        },
		{
            "tag": "zarrowsandstuff:food_chilly1"
        },
		{
            "tag": "zarrowsandstuff:food_allmeat"
        }
    ],
    "result": {
        "item": "zarrowsandstuff:chilly_meat_skewer2",
        "count": 1
    }
}