{
    "type": "minecraft:crafting_shapeless",
    "ingredients": [
		{
            "tag": "zarrowsandstuff:food_meat"
        },
		{
            "tag": "zarrowsandstuff:food_bird"
        },
		{
            "item": "zarrowsandstuff:spicy_pepper"
        },
		{
            "item": "zarrowsandstuff:spicy_pepper"
        },
		{
            "item": "zarrowsandstuff:spicy_pepper"
        }
    ],
    "result": {
        "item": "zarrowsandstuff:spicy_meat_skewer4",
        "count": 1
    }
}