{
    "type": "minecraft:crafting_shapeless",
    "ingredients": [
        {
            "tag": "zarrowsandstuff:food_meat"
        },
		{
            "tag": "zarrowsandstuff:food_meat"
        }
    ],
    "result": {
        "item": "zarrowsandstuff:meat_skewer1",
        "count": 1
    }
}