{
    "type": "minecraft:smelting",
    "ingredient": {
        "item": "zarrowsandstuff:spicy_pepper"
    },
    "result": "zarrowsandstuff:charred_pepper",
    "experience": 0.1,
    "cookingtime": 200
}