{
    "type": "minecraft:crafting_shapeless",
    "ingredients": [
        {
            "item": "zarrowsandstuff:stamella_shroom"
        },
		{
            "tag": "zarrowsandstuff:food_mushroom"
        },
		{
            "tag": "zarrowsandstuff:food_mushroom"
        },
		{
            "tag": "zarrowsandstuff:food_mushroom"
        },
		{
            "tag": "zarrowsandstuff:food_mushroom"
        }
    ],
    "result": {
        "item": "zarrowsandstuff:energizing_mushroom_skewer15",
        "count": 1
    }
}