{
    "type": "minecraft:crafting_shapeless",
    "ingredients": [
        {
            "tag": "zarrowsandstuff:food_honey"
        },
		{
            "tag": "zarrowsandstuff:food_honey"
        },
		{
            "tag": "zarrowsandstuff:food_fruit5"
        },
		{
		"tag": "zarrowsandstuff:food_fruit5"
		}
    ],
    "result": {
        "item": "zarrowsandstuff:honeyed_fruits5",
        "count": 1
    }
}