{
    "type": "minecraft:crafting_shapeless",
    "ingredients": [
        {
            "tag": "zarrowsandstuff:food_honey"
        }
    ],
    "result": {
        "item": "zarrowsandstuff:honey_candy1",
        "count": 1
    }
}