{
    "type": "minecraft:crafting_shapeless",
    "ingredients": [
        {
		"tag": "zarrowsandstuff:food_fruit4"
		},
		{
           "tag": "zarrowsandstuff:food_fruit4"
        },
		{
            "tag": "zarrowsandstuff:food_fruit4"
        },
		{
            "tag": "zarrowsandstuff:food_honey"
        },
		{
            "item": "minecraft:apple"
        }
    ],
    "result": {
        "item": "zarrowsandstuff:honeyed_apple19",
        "count": 1
    }
}