{
    "type": "minecraft:crafting_shapeless",
    "ingredients": [
        {
		"item": "minecraft:apple"
		},
		{
		"item": "minecraft:apple"
		},
		{
            "tag": "zarrowsandstuff:food_honey"
        },
		{
            "tag": "zarrowsandstuff:food_fruit4"
        }
    ],
    "result": {
        "item": "zarrowsandstuff:honeyed_apple6",
        "count": 1
    }
}