{
	"credit": "Made with Blockbench",
	"parent": "block/block",
	"ambientocclusion": false,
	"textures": {
		"2": "zarrowsandstuff:blocks/natural/ore_deposit/texture2",
		"3": "zarrowsandstuff:blocks/natural/ore_deposit/texture3",
		"particle": "zarrowsandstuff:blocks/natural/ore_deposit/texture2"
	},
	"elements": [
		{
			"from": [5, -0.5, 4.125],
			"to": [11, 3.5, 10.125],
			"rotation": {"angle": 0, "axis": "y", "origin": [0, 0.5, 1.125]},
			"faces": {
				"north": {"uv": [0, 1, 6, 5], "texture": "#3"},
				"east": {"uv": [3, 1, 9, 5], "texture": "#3"},
				"south": {"uv": [0, 1, 6, 5], "texture": "#3"},
				"west": {"uv": [3, 1, 9, 5], "texture": "#3"},
				"up": {"uv": [1, 1, 7, 5], "texture": "#3"},
				"down": {"uv": [0, 13, 4, 16], "texture": "#3"}
			}
		},
		{
			"from": [3, 3.5, 5.125],
			"to": [12, 7.5, 11.125],
			"rotation": {"angle": 0, "axis": "y", "origin": [0, 0.5, 1.125]},
			"faces": {
				"north": {"uv": [0, 1, 6, 5], "texture": "#3"},
				"east": {"uv": [3, 1, 9, 5], "texture": "#3"},
				"south": {"uv": [0, 1, 6, 5], "texture": "#3"},
				"west": {"uv": [3, 1, 9, 5], "texture": "#3"},
				"up": {"uv": [1, 1, 7, 5], "texture": "#3"},
				"down": {"uv": [0, 13, 4, 16], "texture": "#3"}
			}
		},
		{
			"from": [5, 6.5, 7.125],
			"to": [9, 10.5, 12.125],
			"rotation": {"angle": 0, "axis": "y", "origin": [0, 0.5, 1.125]},
			"faces": {
				"north": {"uv": [0, 1, 6, 5], "texture": "#3"},
				"east": {"uv": [3, 1, 9, 5], "texture": "#3"},
				"south": {"uv": [0, 1, 6, 5], "texture": "#3"},
				"west": {"uv": [3, 1, 9, 5], "texture": "#3"},
				"up": {"uv": [1, 1, 7, 5], "texture": "#3"},
				"down": {"uv": [0, 13, 4, 16], "texture": "#3"}
			}
		},
		{
			"from": [6, 5.5, 9.125],
			"to": [8, 7.5, 11.125],
			"rotation": {"angle": 22.5, "axis": "z", "origin": [0, 0.5, 1.125]},
			"faces": {
				"north": {"uv": [1, 0, 5, 4], "texture": "#2"},
				"east": {"uv": [10, 12, 14, 16], "texture": "#2"},
				"south": {"uv": [8, 12, 12, 16], "texture": "#2"},
				"west": {"uv": [5, 6, 9, 10], "texture": "#2"},
				"up": {"uv": [10, 5, 14, 9], "texture": "#2"},
				"down": {"uv": [2, 0, 6, 4], "texture": "#2"}
			}
		},
		{
			"from": [10, -2.5, 10.125],
			"to": [12, -0.5, 12.125],
			"rotation": {"angle": 22.5, "axis": "z", "origin": [0, 0.5, 1.125]},
			"faces": {
				"north": {"uv": [1, 0, 5, 4], "texture": "#2"},
				"east": {"uv": [10, 12, 14, 16], "texture": "#2"},
				"south": {"uv": [8, 12, 12, 16], "texture": "#2"},
				"west": {"uv": [5, 6, 9, 10], "texture": "#2"},
				"up": {"uv": [10, 5, 14, 9], "texture": "#2"},
				"down": {"uv": [2, 0, 6, 4], "texture": "#2"}
			}
		},
		{
			"from": [8, 3.5, 6.125],
			"to": [10, 12.5, 8.125],
			"rotation": {"angle": 0, "axis": "z", "origin": [0, 0.5, 1.125]},
			"faces": {
				"north": {"uv": [2, 2, 5, 10], "texture": "#3"},
				"east": {"uv": [2, 2, 5, 10], "texture": "#3"},
				"south": {"uv": [2, 2, 5, 10], "texture": "#3"},
				"west": {"uv": [2, 2, 5, 10], "texture": "#3"},
				"up": {"uv": [2, 2, 5, 10], "texture": "#3"},
				"down": {"uv": [2, 2, 5, 10], "texture": "#3"}
			}
		},
		{
			"from": [4, 0.5, 4.125],
			"to": [5, 9.5, 6.125],
			"rotation": {"angle": 0, "axis": "z", "origin": [0, 0.5, 1.125]},
			"faces": {
				"north": {"uv": [12, 0, 16, 16], "texture": "#2"},
				"east": {"uv": [8, 0, 12, 16], "texture": "#2"},
				"south": {"uv": [5, 0, 9, 16], "texture": "#2"},
				"west": {"uv": [5, 0, 9, 16], "texture": "#2"},
				"up": {"uv": [6, 1, 9, 4], "texture": "#2"},
				"down": {"uv": [12, 0, 16, 16], "texture": "#2"}
			}
		},
		{
			"from": [5, -0.5, 9.125],
			"to": [7, 4.5, 11.125],
			"rotation": {"angle": 0, "axis": "z", "origin": [0, 0.5, 1.125]},
			"faces": {
				"north": {"uv": [12, 0, 16, 16], "texture": "#2"},
				"east": {"uv": [8, 0, 12, 16], "texture": "#2"},
				"south": {"uv": [5, 0, 9, 16], "texture": "#2"},
				"west": {"uv": [5, 0, 9, 16], "texture": "#2"},
				"up": {"uv": [6, 1, 9, 4], "texture": "#2"},
				"down": {"uv": [12, 0, 16, 16], "texture": "#2"}
			}
		},
		{
			"from": [8, -3.5, 6.125],
			"to": [10, 0.5, 8.125],
			"rotation": {"angle": 0, "axis": "z", "origin": [0, 0.5, 1.125]},
			"faces": {
				"north": {"uv": [2, 2, 5, 10], "texture": "#3"},
				"east": {"uv": [2, 2, 5, 10], "texture": "#3"},
				"south": {"uv": [2, 2, 5, 10], "texture": "#3"},
				"west": {"uv": [2, 2, 5, 10], "texture": "#3"},
				"up": {"uv": [2, 2, 5, 10], "texture": "#3"},
				"down": {"uv": [2, 2, 5, 10], "texture": "#3"}
			}
		},
		{
			"from": [2, -1.5, 8.125],
			"to": [4, 2.5, 9.125],
			"rotation": {"angle": -22.5, "axis": "x", "origin": [0, 0.5, 1.125]},
			"faces": {
				"north": {"uv": [12, 0, 16, 16], "texture": "#2"},
				"east": {"uv": [8, 0, 12, 16], "texture": "#2"},
				"south": {"uv": [5, 0, 9, 16], "texture": "#2"},
				"west": {"uv": [5, 0, 9, 16], "texture": "#2"},
				"up": {"uv": [6, 1, 9, 4], "texture": "#2"},
				"down": {"uv": [12, 0, 16, 16], "texture": "#2"}
			}
		},
		{
			"from": [7, 1.5, 3.125],
			"to": [8, 2.5, 9.125],
			"rotation": {"angle": -22.5, "axis": "x", "origin": [0, 0.5, 1.125]},
			"faces": {
				"north": {"uv": [14, 14, 16, 16], "texture": "#2"},
				"east": {"uv": [14, 0, 16, 16], "texture": "#2"},
				"south": {"uv": [14, 0, 16, 2], "texture": "#2"},
				"west": {"uv": [14, 0, 16, 16], "texture": "#2"},
				"up": {"uv": [14, 0, 16, 16], "rotation": 180, "texture": "#2"},
				"down": {"uv": [14, 0, 16, 16], "rotation": 180, "texture": "#2"}
			}
		},
		{
			"from": [8, 7.5, 8.125],
			"to": [9, 13.5, 9.125],
			"rotation": {"angle": 22.5, "axis": "x", "origin": [0, 0.5, 1.125]},
			"faces": {
				"north": {"uv": [14, 0, 16, 16], "texture": "#2"},
				"east": {"uv": [14, 0, 16, 16], "texture": "#2"},
				"south": {"uv": [14, 0, 16, 16], "texture": "#2"},
				"west": {"uv": [14, 0, 16, 16], "texture": "#2"},
				"up": {"uv": [14, 0, 16, 2], "texture": "#2"},
				"down": {"uv": [14, 14, 16, 16], "texture": "#2"}
			}
		}
	],
	"display": {
		"firstperson_righthand": {
			"translation": [-0.5, 1.75, 0]
		},
		"firstperson_lefthand": {
			"translation": [-0.75, 1.25, 0]
		},
		"gui": {
			"rotation": [25, 53, 0],
			"translation": [0.25, 2.5, 0],
			"scale": [0.96, 0.88, 0.95]
		},
		"fixed": {
			"rotation": [-24, -32, -3],
			"translation": [0.75, 2.75, -1]
		}
	}
}