{
  "parent": "minecraft:block/cube_bottom_top",
  "textures": {
    "top": "zarrowsandstuff:blocks/natural/snowstone_top",
    "bottom": "zarrowsandstuff:blocks/natural/snowstone_bottom",
    "side": "zarrowsandstuff:blocks/natural/snowstone"
  }
}