{
    "type": "minecraft:crafting_shapeless",
    "ingredients": [       
		{
            "tag": "zarrowsandstuff:food_fruit2"
        },
		{
            "tag": "zarrowsandstuff:food_sugar"
        },
		{
            "item": "minecraft:wheat"
        },
		{
            "tag": "zarrowsandstuff:food_fruit"
        },
		{
            "tag": "zarrowsandstuff:food_chilly1"
        }
    ],
    "result": {
        "item": "zarrowsandstuff:fruitcake1",
        "count": 1
    }
}