{
    "type": "minecraft:crafting_shapeless",
    "ingredients": [
        {
            "tag": "zarrowsandstuff:food_sugar"
        },
        {
            "item": "minecraft:wheat"
        },
        {
            "tag": "zarrowsandstuff:food_wildberry"
        },
        {
            "item": "minecraft:egg"
        },
        {
            "item": "minecraft:milk_bucket"
        }
    ],
    "result": {
        "item": "zarrowsandstuff:wildberry_crepe",
        "count": 1
    }
}