{
    "type": "minecraft:crafting_shapeless",
    "ingredients": [
        {
            "item": "zarrowsandstuff:topaz"
        },
        {
            "item": "zarrowsandstuff:topaz"
        },
        {
            "item": "zarrowsandstuff:topaz"
        },
        {
            "item": "zarrowsandstuff:topaz"
        },
        {
            "item": "zarrowsandstuff:topaz"
        },
        {
            "item": "zarrowsandstuff:topaz"
        },
		{
            "item": "zarrowsandstuff:topaz"
        },
		{
            "item": "zarrowsandstuff:topaz"
        }
    ],
    "result": {
        "item": "zarrowsandstuff:raw_thunder_essence",
        "count": 1
    }
}